\relax 
\@LN@col{1}
\@LN@col{2}
\@LN@col{1}
\@writefile{lof}{\contentsline {figure}{\numberline {1}{\ignorespaces  The boot process}}{2}\protected@file@percent }
\newlabel{fig:booting}{{1}{2}}
\@writefile{toc}{\contentsline {section}{\numberline {1}The Kernel Abstraction}{2}\protected@file@percent }
\@writefile{toc}{\contentsline {subsection}{\numberline {1.1}Booting}{2}\protected@file@percent }
\@writefile{toc}{\contentsline {subsection}{\numberline {1.2}Device Interrupts}{2}\protected@file@percent }
\@LN@col{2}
\@writefile{toc}{\contentsline {subsection}{\numberline {1.3}Process Abstraction}{2}\protected@file@percent }
\@writefile{toc}{\contentsline {subsection}{\numberline {1.4}Dual-Mode operation}{2}\protected@file@percent }
\@writefile{toc}{\contentsline {subsection}{\numberline {1.5}Memory protection}{2}\protected@file@percent }
\@writefile{toc}{\contentsline {subsubsection}{\numberline {1.5.1}Base + bound registers}{2}\protected@file@percent }
\@LN@col{1}
\@writefile{lof}{\contentsline {figure}{\numberline {2}{\ignorespaces Memory protection with base and bound registers.}}{3}\protected@file@percent }
\newlabel{fig:basebound}{{2}{3}}
\@writefile{toc}{\contentsline {subsubsection}{\numberline {1.5.2}Virtual addesses}{3}\protected@file@percent }
\@writefile{toc}{\contentsline {subsubsection}{\numberline {1.5.3}Kalloc vs malloc}{3}\protected@file@percent }
\@writefile{toc}{\contentsline {subsubsection}{\numberline {1.5.4}Hardware timer}{3}\protected@file@percent }
\@writefile{toc}{\contentsline {subsubsection}{\numberline {1.5.5}Mode switching}{3}\protected@file@percent }
\@LN@col{2}
\@writefile{lof}{\contentsline {figure}{\numberline {3}{\ignorespaces Interrupt stack}}{3}\protected@file@percent }
\newlabel{fig:interstack}{{3}{3}}
\@writefile{toc}{\contentsline {subsection}{\numberline {1.6}Interrupts}{3}\protected@file@percent }
\@LN@col{1}
\@writefile{lof}{\contentsline {figure}{\numberline {4}{\ignorespaces Hourglass model of OS}}{4}\protected@file@percent }
\newlabel{fig:hourglass}{{4}{4}}
\@writefile{toc}{\contentsline {subsection}{\numberline {1.7}Upcalls}{4}\protected@file@percent }
\@writefile{toc}{\contentsline {subsection}{\numberline {1.8}Syscalls}{4}\protected@file@percent }
\@writefile{toc}{\contentsline {subsubsection}{\numberline {1.8.1}Kernel System Call handler}{4}\protected@file@percent }
\@LN@col{2}
\@writefile{lof}{\contentsline {figure}{\numberline {5}{\ignorespaces Syscall diagram}}{4}\protected@file@percent }
\newlabel{fig:syscall}{{5}{4}}
\@writefile{toc}{\contentsline {subsection}{\numberline {1.9}User-level VM}{4}\protected@file@percent }
\@writefile{toc}{\contentsline {subsection}{\numberline {1.10}Avoiding boundary crossings}{4}\protected@file@percent }
\@writefile{toc}{\contentsline {section}{\numberline {2}The Programming Interface}{4}\protected@file@percent }
\@writefile{toc}{\contentsline {subsection}{\numberline {2.1}Windows CreateProcess}{4}\protected@file@percent }
\@LN@col{1}
\@writefile{toc}{\contentsline {subsection}{\numberline {2.2}Unix fork/exec}{5}\protected@file@percent }
\@writefile{toc}{\contentsline {subsection}{\numberline {2.3}Unix I/O}{5}\protected@file@percent }
\@writefile{toc}{\contentsline {subsubsection}{\numberline {2.3.1}UNIX File System Interface}{5}\protected@file@percent }
\@writefile{toc}{\contentsline {subsection}{\numberline {2.4}Implementing a Shell}{5}\protected@file@percent }
\@LN@col{2}
\@writefile{toc}{\contentsline {subsection}{\numberline {2.5}Shell Input/Output Redirection}{5}\protected@file@percent }
\@writefile{toc}{\contentsline {section}{\numberline {3}Concurrency}{5}\protected@file@percent }
\@writefile{toc}{\contentsline {subsection}{\numberline {3.1}Definitions}{5}\protected@file@percent }
\@writefile{toc}{\contentsline {subsubsection}{\numberline {3.1.1}Is a kernel interrupt a thread?}{5}\protected@file@percent }
\@writefile{toc}{\contentsline {subsection}{\numberline {3.2}Threads in the Kernel vs User-level}{5}\protected@file@percent }
\@LN@col{1}
\@writefile{toc}{\contentsline {subsection}{\numberline {3.3}Thread operations}{6}\protected@file@percent }
\@writefile{toc}{\contentsline {subsubsection}{\numberline {3.3.1}Other per-thread state}{6}\protected@file@percent }
\@writefile{toc}{\contentsline {subsection}{\numberline {3.4}Thread lifecyle}{6}\protected@file@percent }
\@writefile{toc}{\contentsline {subsection}{\numberline {3.5}Fork/Join Concurrency}{6}\protected@file@percent }
\@writefile{toc}{\contentsline {subsection}{\numberline {3.6}Thread data structures}{6}\protected@file@percent }
\@LN@col{2}
\@writefile{toc}{\contentsline {subsection}{\numberline {3.7}Implementing threads}{6}\protected@file@percent }
\@writefile{toc}{\contentsline {subsection}{\numberline {3.8}Thread context switch}{6}\protected@file@percent }
\@writefile{toc}{\contentsline {subsubsection}{\numberline {3.8.1}Context switch subtlety}{6}\protected@file@percent }
\@writefile{toc}{\contentsline {subsection}{\numberline {3.9}Faster Thread/Process switch}{6}\protected@file@percent }
\@writefile{toc}{\contentsline {subsection}{\numberline {3.10}Preemptive multi-threading}{6}\protected@file@percent }
\@writefile{lof}{\contentsline {figure}{\numberline {6}{\ignorespaces  The thread lifecycle.}}{7}\protected@file@percent }
\newlabel{fig:threadlife}{{6}{7}}
\@LN@col{1}
\@writefile{toc}{\contentsline {subsection}{\numberline {3.11}Schedule activations (modern OS)}{7}\protected@file@percent }
\@writefile{toc}{\contentsline {subsection}{\numberline {3.12}Scheduling in xk}{7}\protected@file@percent }
\@writefile{toc}{\contentsline {section}{\numberline {4}File Descriptors}{7}\protected@file@percent }
\@writefile{toc}{\contentsline {subsection}{\numberline {4.1}Open}{7}\protected@file@percent }
\@LN@col{2}
\@writefile{toc}{\contentsline {subsection}{\numberline {4.2}Close}{7}\protected@file@percent }
\@writefile{toc}{\contentsline {subsection}{\numberline {4.3}Dup}{7}\protected@file@percent }
\@writefile{toc}{\contentsline {subsection}{\numberline {4.4}Read/Write}{7}\protected@file@percent }
\@writefile{toc}{\contentsline {subsection}{\numberline {4.5}Stat}{7}\protected@file@percent }
\@writefile{toc}{\contentsline {section}{\numberline {5}Synchronization}{7}\protected@file@percent }
\@writefile{toc}{\contentsline {subsection}{\numberline {5.1}Definitions}{7}\protected@file@percent }
\@LN@col{1}
\@writefile{toc}{\contentsline {subsection}{\numberline {5.2}Too Much Milk}{8}\protected@file@percent }
\@writefile{toc}{\contentsline {subsubsection}{\numberline {5.2.1}Solution 1}{8}\protected@file@percent }
\@writefile{toc}{\contentsline {subsubsection}{\numberline {5.2.2}Solution 2}{8}\protected@file@percent }
\@LN@col{2}
\@writefile{toc}{\contentsline {subsubsection}{\numberline {5.2.3}Winning solution}{8}\protected@file@percent }
\@writefile{toc}{\contentsline {subsection}{\numberline {5.3}Locks}{8}\protected@file@percent }
\@writefile{toc}{\contentsline {subsubsection}{\numberline {5.3.1}Double-checked locking}{8}\protected@file@percent }
\@LN@col{1}
\@writefile{toc}{\contentsline {subsection}{\numberline {5.4}Condition variables}{9}\protected@file@percent }
\@writefile{toc}{\contentsline {subsubsection}{\numberline {5.4.1}Differences between regular OS and xk}{9}\protected@file@percent }
\@writefile{toc}{\contentsline {subsubsection}{\numberline {5.4.2}Mesa v Hoare semantics}{9}\protected@file@percent }
\@writefile{toc}{\contentsline {section}{\numberline {6}Implementing Synchronization}{9}\protected@file@percent }
\@LN@col{2}
\@writefile{toc}{\contentsline {subsection}{\numberline {6.1}Lock implementation with test-and-set}{9}\protected@file@percent }
\@LN@col{1}
\@writefile{toc}{\contentsline {subsection}{\numberline {6.2}Lock implementation with CAS}{10}\protected@file@percent }
\@writefile{toc}{\contentsline {subsection}{\numberline {6.3}Spinlocks v Sleeplocks}{10}\protected@file@percent }
\@writefile{toc}{\contentsline {section}{\numberline {7}Signal handling}{10}\protected@file@percent }
\@writefile{toc}{\contentsline {section}{\numberline {8}CPU Scheduling}{10}\protected@file@percent }
\@writefile{toc}{\contentsline {subsection}{\numberline {8.1}FIFO/FCFS}{10}\protected@file@percent }
\@LN@col{2}
\@writefile{lof}{\contentsline {figure}{\numberline {7}{\ignorespaces  SJF vs FIFO. Notice that in this example we almost certainly want SJF, since the smaller tasks are starved in FIFO.}}{10}\protected@file@percent }
\newlabel{fig:sjfvsfifo}{{7}{10}}
\@writefile{toc}{\contentsline {subsection}{\numberline {8.2}Shortest Job First (SJF) /Shortest Remaining Time First (SRTF)}{10}\protected@file@percent }
\@writefile{toc}{\contentsline {subsection}{\numberline {8.3}Round Robin}{10}\protected@file@percent }
\@LN@col{1}
\@writefile{toc}{\contentsline {subsection}{\numberline {8.4}Multilevel Feedback Queue (MFQ)}{11}\protected@file@percent }
\@writefile{toc}{\contentsline {section}{\numberline {9}Multiprocessor scheduling}{11}\protected@file@percent }
\@writefile{toc}{\contentsline {subsection}{\numberline {9.1}Per-processor Affinity Scheduling}{11}\protected@file@percent }
\@writefile{toc}{\contentsline {section}{\numberline {10}File System}{11}\protected@file@percent }
\@writefile{toc}{\contentsline {subsection}{\numberline {10.1}FS call layers}{11}\protected@file@percent }
\@writefile{toc}{\contentsline {subsection}{\numberline {10.2}Extent management implementations}{11}\protected@file@percent }
\@writefile{toc}{\contentsline {subsubsection}{\numberline {10.2.1}pre-alloc}{11}\protected@file@percent }
\@writefile{toc}{\contentsline {subsubsection}{\numberline {10.2.2}array}{11}\protected@file@percent }
\@LN@col{2}
\@writefile{lof}{\contentsline {figure}{\numberline {8}{\ignorespaces  Inode indirect blocks in UNIX}}{11}\protected@file@percent }
\newlabel{fig:inodes}{{8}{11}}
\@writefile{toc}{\contentsline {subsubsection}{\numberline {10.2.3}Unix-style indirection}{11}\protected@file@percent }
\@writefile{toc}{\contentsline {subsection}{\numberline {10.3}Transactions and Atomicity/Logging}{11}\protected@file@percent }
\@writefile{toc}{\contentsline {subsection}{\numberline {10.4}Inodes}{11}\protected@file@percent }
\@LN@col{1}
\@writefile{toc}{\contentsline {section}{\numberline {11}Persistent disk}{12}\protected@file@percent }
\@writefile{toc}{\contentsline {subsection}{\numberline {11.1}RAID (Redundant Array of Independent Disks)}{12}\protected@file@percent }
\@writefile{toc}{\contentsline {subsection}{\numberline {11.2}NVM \& Flash Storage}{12}\protected@file@percent }
\@LN@col{2}
\@writefile{toc}{\contentsline {subsection}{\numberline {11.3}Disk data structures}{12}\protected@file@percent }
\@writefile{toc}{\contentsline {subsubsection}{\numberline {11.3.1}Bitmap}{12}\protected@file@percent }
\@writefile{toc}{\contentsline {subsubsection}{\numberline {11.3.2}Log region}{12}\protected@file@percent }
\@writefile{toc}{\contentsline {subsubsection}{\numberline {11.3.3}(D)inodes}{12}\protected@file@percent }
\@writefile{toc}{\contentsline {subsubsection}{\numberline {11.3.4}Superblock}{12}\protected@file@percent }
\@writefile{toc}{\contentsline {subsubsection}{\numberline {11.3.5}Boot block(s)}{12}\protected@file@percent }
\@writefile{toc}{\contentsline {subsection}{\numberline {11.4}Disk and cache consistency}{12}\protected@file@percent }
\@writefile{toc}{\contentsline {section}{\numberline {12}Paging}{12}\protected@file@percent }
\@writefile{toc}{\contentsline {subsection}{\numberline {12.1}Purpose}{12}\protected@file@percent }
\@LN@col{1}
\@writefile{toc}{\contentsline {subsection}{\numberline {12.2}Fragmentation}{13}\protected@file@percent }
\@writefile{toc}{\contentsline {section}{\numberline {13}Page Replacement}{13}\protected@file@percent }
\@writefile{toc}{\contentsline {subsection}{\numberline {13.1}Random}{13}\protected@file@percent }
\@writefile{toc}{\contentsline {subsection}{\numberline {13.2}FIFO}{13}\protected@file@percent }
\@writefile{toc}{\contentsline {subsection}{\numberline {13.3}LRU}{13}\protected@file@percent }
\@writefile{toc}{\contentsline {subsubsection}{\numberline {13.3.1}Approximating LRU}{13}\protected@file@percent }
\@LN@col{2}
\@writefile{toc}{\contentsline {subsection}{\numberline {13.4}Multiple Page Levels}{13}\protected@file@percent }
\@writefile{toc}{\contentsline {subsubsection}{\numberline {13.4.1}Paged segmentation}{13}\protected@file@percent }
\@writefile{toc}{\contentsline {subsubsection}{\numberline {13.4.2}Portability}{13}\protected@file@percent }
\@writefile{toc}{\contentsline {subsection}{\numberline {13.5}Demand Paging}{13}\protected@file@percent }
\@writefile{toc}{\contentsline {subsubsection}{\numberline {13.5.1}Memory-mapped files}{13}\protected@file@percent }
\@LN@col{1}
\@writefile{toc}{\contentsline {subsection}{\numberline {13.6}Address Translation and the TLB}{14}\protected@file@percent }
\@writefile{toc}{\contentsline {subsubsection}{\numberline {13.6.1}Base and bounds}{14}\protected@file@percent }
\@LN@col{2}
\@writefile{lof}{\contentsline {figure}{\numberline {9}{\ignorespaces  TLB Translation}}{14}\protected@file@percent }
\newlabel{fig:tlbtrans}{{9}{14}}
\@writefile{toc}{\contentsline {subsubsection}{\numberline {13.6.2}Segmentation}{14}\protected@file@percent }
\@writefile{toc}{\contentsline {subsubsection}{\numberline {13.6.3}TLB}{14}\protected@file@percent }
\@writefile{toc}{\contentsline {subsection}{\numberline {13.7}Page Faults}{14}\protected@file@percent }
\@writefile{toc}{\contentsline {section}{\numberline {14}Virtual Memory}{14}\protected@file@percent }
\@writefile{toc}{\contentsline {subsection}{\numberline {14.1}Linear vs Virtual vs Physical Address}{14}\protected@file@percent }
\gdef\minted@oldcachelist{,
  default-pyg-prefix.pygstyle,
  default.pygstyle,
  E45184669D983434476827BE3B3D0E19DC28958420084C6970D28170117C9CAC.pygtex,
  425CCD4B8F5AD69D8D80DC94B2C769E5DC28958420084C6970D28170117C9CAC.pygtex,
  C087AC2FACB5786EDC1DF5EF54C6E179D8D6619E5E2D11A3EB992A0F9725186E.pygtex,
  E419DD61CE161D61A31C16FA2DAE4412DC28958420084C6970D28170117C9CAC.pygtex,
  1920EBEE30AADCCF29763A6AEEBCB1B8DC28958420084C6970D28170117C9CAC.pygtex,
  83B45883ED2D987127A019A77148FB77DC28958420084C6970D28170117C9CAC.pygtex,
  69F5B5DFC3167BC3805864B7F9E6FFFDDC28958420084C6970D28170117C9CAC.pygtex,
  0835CCA5C380148DA3F4E28D275C0936DC28958420084C6970D28170117C9CAC.pygtex,
  1893A4E33A37B66BBB225F910356BB76DC28958420084C6970D28170117C9CAC.pygtex,
  2A2A7A66F30781A342100D3473AA5480DC28958420084C6970D28170117C9CAC.pygtex,
  CB17DE77B7ADC2D4B96264E8B77CBC80DC28958420084C6970D28170117C9CAC.pygtex,
  4A901B2654EBFB5BBB618B30998D7A40DC28958420084C6970D28170117C9CAC.pygtex,
  FE87F6B820C8379B6597A56A1C11098FDC28958420084C6970D28170117C9CAC.pygtex}
\@LN@col{1}
\@writefile{lof}{\contentsline {figure}{\numberline {10}{\ignorespaces  TLB Lookup}}{15}\protected@file@percent }
\newlabel{fig:tlblookup}{{10}{15}}
\@writefile{toc}{\contentsline {subsection}{\numberline {14.2}Self-paging}{15}\protected@file@percent }
\@writefile{toc}{\contentsline {subsection}{\numberline {14.3}Swapping}{15}\protected@file@percent }
\@LN@col{2}
